%YAML 1.1
%TAG !u! tag:unity3d.com,2011:
--- !u!1 &2820730666102345494
GameObject:
  m_ObjectHideFlags: 0
  m_CorrespondingSourceObject: {fileID: 0}
  m_PrefabInstance: {fileID: 0}
  m_PrefabAsset: {fileID: 0}
  serializedVersion: 6
  m_Component:
  - component: {fileID: 2820730666102345495}
  m_Layer: 0
  m_Name: CameraPos (1)
  m_TagString: Untagged
  m_Icon: {fileID: 0}
  m_NavMeshLayer: 0
  m_StaticEditorFlags: 0
  m_IsActive: 0
--- !u!4 &2820730666102345495
Transform:
  m_ObjectHideFlags: 0
  m_CorrespondingSourceObject: {fileID: 0}
  m_PrefabInstance: {fileID: 0}
  m_PrefabAsset: {fileID: 0}
  m_GameObject: {fileID: 2820730666102345494}
  m_LocalRotation: {x: 0.35551816, y: -0.6112339, z: 0.35551816, w: 0.6112339}
  m_LocalPosition: {x: 13.63, y: 10.65, z: -0.07}
  m_LocalScale: {x: 1, y: 1, z: 1}
  m_Children:
  - {fileID: 1704067693710848708}
  m_Father: {fileID: 0}
  m_RootOrder: 0
  m_LocalEulerAnglesHint: {x: 60.368004, y: -90, z: 0}
--- !u!114 &2820730667029924006
MonoBehaviour:
  m_ObjectHideFlags: 0
  m_CorrespondingSourceObject: {fileID: 0}
  m_PrefabInstance: {fileID: 0}
  m_PrefabAsset: {fileID: 0}
  m_GameObject: {fileID: 7309218741545136434}
  m_Enabled: 1
  m_EditorHideFlags: 0
  m_Script: {fileID: 11500000, guid: a79441f348de89743a2939f4d699eac1, type: 3}
  m_Name: 
  m_EditorClassIdentifier: 
  m_RenderShadows: 1
  m_RequiresDepthTextureOption: 2
  m_RequiresOpaqueTextureOption: 2
  m_CameraType: 0
  m_Cameras: []
  m_RendererIndex: -1
  m_VolumeLayerMask:
    serializedVersion: 2
    m_Bits: 1
  m_VolumeTrigger: {fileID: 0}
  m_RenderPostProcessing: 0
  m_Antialiasing: 0
  m_AntialiasingQuality: 2
  m_StopNaN: 0
  m_Dithering: 0
  m_ClearDepth: 1
  m_RequiresDepthTexture: 0
  m_RequiresColorTexture: 0
  m_Version: 2
--- !u!1001 &2820730667873835152
PrefabInstance:
  m_ObjectHideFlags: 0
  serializedVersion: 2
  m_Modification:
    m_TransformParent: {fileID: 2820730666102345495}
    m_Modifications:
    - target: {fileID: 3495689486056106580, guid: 11f5bb57e3bee6b408ea802cf0ab2aff,
        type: 3}
      propertyPath: m_RootOrder
      value: 0
      objectReference: {fileID: 0}
    - target: {fileID: 3495689486056106580, guid: 11f5bb57e3bee6b408ea802cf0ab2aff,
        type: 3}
      propertyPath: m_LocalScale.x
      value: 1
      objectReference: {fileID: 0}
    - target: {fileID: 3495689486056106580, guid: 11f5bb57e3bee6b408ea802cf0ab2aff,
        type: 3}
      propertyPath: m_LocalScale.y
      value: 1
      objectReference: {fileID: 0}
    - target: {fileID: 3495689486056106580, guid: 11f5bb57e3bee6b408ea802cf0ab2aff,
        type: 3}
      propertyPath: m_LocalScale.z
      value: 1
      objectReference: {fileID: 0}
    - target: {fileID: 3495689486056106580, guid: 11f5bb57e3bee6b408ea802cf0ab2aff,
        type: 3}
      propertyPath: m_LocalPosition.x
      value: 0
      objectReference: {fileID: 0}
    - target: {fileID: 3495689486056106580, guid: 11f5bb57e3bee6b408ea802cf0ab2aff,
        type: 3}
      propertyPath: m_LocalPosition.y
      value: 0
      objectReference: {fileID: 0}
    - target: {fileID: 3495689486056106580, guid: 11f5bb57e3bee6b408ea802cf0ab2aff,
        type: 3}
      propertyPath: m_LocalPosition.z
      value: 0
      objectReference: {fileID: 0}
    - target: {fileID: 3495689486056106580, guid: 11f5bb57e3bee6b408ea802cf0ab2aff,
        type: 3}
      propertyPath: m_LocalRotation.w
      value: 1
      objectReference: {fileID: 0}
    - target: {fileID: 3495689486056106580, guid: 11f5bb57e3bee6b408ea802cf0ab2aff,
        type: 3}
      propertyPath: m_LocalRotation.x
      value: -0
      objectReference: {fileID: 0}
    - target: {fileID: 3495689486056106580, guid: 11f5bb57e3bee6b408ea802cf0ab2aff,
        type: 3}
      propertyPath: m_LocalRotation.y
      value: -0
      objectReference: {fileID: 0}
    - target: {fileID: 3495689486056106580, guid: 11f5bb57e3bee6b408ea802cf0ab2aff,
        type: 3}
      propertyPath: m_LocalRotation.z
      value: -0
      objectReference: {fileID: 0}
    - target: {fileID: 3495689486056106580, guid: 11f5bb57e3bee6b408ea802cf0ab2aff,
        type: 3}
      propertyPath: m_LocalEulerAnglesHint.x
      value: 23.739
      objectReference: {fileID: 0}
    - target: {fileID: 3495689486056106580, guid: 11f5bb57e3bee6b408ea802cf0ab2aff,
        type: 3}
      propertyPath: m_LocalEulerAnglesHint.y
      value: -87.186005
      objectReference: {fileID: 0}
    - target: {fileID: 3495689486056106580, guid: 11f5bb57e3bee6b408ea802cf0ab2aff,
        type: 3}
      propertyPath: m_LocalEulerAnglesHint.z
      value: -0.003
      objectReference: {fileID: 0}
    - target: {fileID: 3495689486056106587, guid: 11f5bb57e3bee6b408ea802cf0ab2aff,
        type: 3}
      propertyPath: m_Name
      value: GameCam
      objectReference: {fileID: 0}
    - target: {fileID: 4776824009667340718, guid: 11f5bb57e3bee6b408ea802cf0ab2aff,
        type: 3}
      propertyPath: m_ClearFlags
      value: 2
      objectReference: {fileID: 0}
    - target: {fileID: 4776824009667340718, guid: 11f5bb57e3bee6b408ea802cf0ab2aff,
        type: 3}
      propertyPath: orthographic
      value: 0
      objectReference: {fileID: 0}
    - target: {fileID: 4776824009667340718, guid: 11f5bb57e3bee6b408ea802cf0ab2aff,
        type: 3}
      propertyPath: field of view
      value: 77
      objectReference: {fileID: 0}
    - target: {fileID: 4776824009667340718, guid: 11f5bb57e3bee6b408ea802cf0ab2aff,
        type: 3}
      propertyPath: m_FocalLength
      value: 68.05538
      objectReference: {fileID: 0}
    - target: {fileID: 4776824009667340718, guid: 11f5bb57e3bee6b408ea802cf0ab2aff,
        type: 3}
      propertyPath: far clip plane
      value: 1000
      objectReference: {fileID: 0}
    - target: {fileID: 4776824009667340718, guid: 11f5bb57e3bee6b408ea802cf0ab2aff,
        type: 3}
      propertyPath: near clip plane
      value: 0.3
      objectReference: {fileID: 0}
    - target: {fileID: 4776824009667340718, guid: 11f5bb57e3bee6b408ea802cf0ab2aff,
        type: 3}
      propertyPath: orthographic size
      value: 6.6
      objectReference: {fileID: 0}
    - target: {fileID: 4776824009667340718, guid: 11f5bb57e3bee6b408ea802cf0ab2aff,
        type: 3}
      propertyPath: m_BackGroundColor.a
      value: 1
      objectReference: {fileID: 0}
    - target: {fileID: 4776824009667340718, guid: 11f5bb57e3bee6b408ea802cf0ab2aff,
        type: 3}
      propertyPath: m_BackGroundColor.b
      value: 1
      objectReference: {fileID: 0}
    - target: {fileID: 4776824009667340718, guid: 11f5bb57e3bee6b408ea802cf0ab2aff,
        type: 3}
      propertyPath: m_BackGroundColor.g
      value: 0.8431373
      objectReference: {fileID: 0}
    - target: {fileID: 4776824009667340718, guid: 11f5bb57e3bee6b408ea802cf0ab2aff,
        type: 3}
      propertyPath: m_BackGroundColor.r
      value: 0.36862746
      objectReference: {fileID: 0}
    - target: {fileID: 4776824009667340718, guid: 11f5bb57e3bee6b408ea802cf0ab2aff,
        type: 3}
      propertyPath: m_CullingMask.m_Bits
      value: 7959
      objectReference: {fileID: 0}
    - target: {fileID: 4776824009667340718, guid: 11f5bb57e3bee6b408ea802cf0ab2aff,
        type: 3}
      propertyPath: m_projectionMatrixMode
      value: 1
      objectReference: {fileID: 0}
    - target: {fileID: 4776824009667340719, guid: 11f5bb57e3bee6b408ea802cf0ab2aff,
        type: 3}
      propertyPath: m_LocalPosition.x
      value: 0
      objectReference: {fileID: 0}
    - target: {fileID: 4776824009667340719, guid: 11f5bb57e3bee6b408ea802cf0ab2aff,
        type: 3}
      propertyPath: m_LocalPosition.y
      value: 0
      objectReference: {fileID: 0}
    - target: {fileID: 4776824009667340719, guid: 11f5bb57e3bee6b408ea802cf0ab2aff,
        type: 3}
      propertyPath: m_LocalPosition.z
      value: 0
      objectReference: {fileID: 0}
    - target: {fileID: 4776824009667340719, guid: 11f5bb57e3bee6b408ea802cf0ab2aff,
        type: 3}
      propertyPath: m_LocalRotation.w
      value: 1
      objectReference: {fileID: 0}
    - target: {fileID: 4776824009667340719, guid: 11f5bb57e3bee6b408ea802cf0ab2aff,
        type: 3}
      propertyPath: m_LocalRotation.x
      value: 0
      objectReference: {fileID: 0}
    - target: {fileID: 4776824009667340719, guid: 11f5bb57e3bee6b408ea802cf0ab2aff,
        type: 3}
      propertyPath: m_LocalRotation.y
      value: 0
      objectReference: {fileID: 0}
    - target: {fileID: 4776824009667340719, guid: 11f5bb57e3bee6b408ea802cf0ab2aff,
        type: 3}
      propertyPath: m_LocalRotation.z
      value: 0
      objectReference: {fileID: 0}
    - target: {fileID: 4776824009667340719, guid: 11f5bb57e3bee6b408ea802cf0ab2aff,
        type: 3}
      propertyPath: m_LocalEulerAnglesHint.x
      value: 0
      objectReference: {fileID: 0}
    - target: {fileID: 4776824009667340719, guid: 11f5bb57e3bee6b408ea802cf0ab2aff,
        type: 3}
      propertyPath: m_LocalEulerAnglesHint.y
      value: 0
      objectReference: {fileID: 0}
    - target: {fileID: 4776824009667340719, guid: 11f5bb57e3bee6b408ea802cf0ab2aff,
        type: 3}
      propertyPath: m_LocalEulerAnglesHint.z
      value: 0
      objectReference: {fileID: 0}
    m_RemovedComponents: []
  m_SourcePrefab: {fileID: 100100000, guid: 11f5bb57e3bee6b408ea802cf0ab2aff, type: 3}
--- !u!4 &1704067693710848708 stripped
Transform:
  m_CorrespondingSourceObject: {fileID: 3495689486056106580, guid: 11f5bb57e3bee6b408ea802cf0ab2aff,
    type: 3}
  m_PrefabInstance: {fileID: 2820730667873835152}
  m_PrefabAsset: {fileID: 0}
--- !u!1 &7309218741545136434 stripped
GameObject:
  m_CorrespondingSourceObject: {fileID: 4776824009667340706, guid: 11f5bb57e3bee6b408ea802cf0ab2aff,
    type: 3}
  m_PrefabInstance: {fileID: 2820730667873835152}
  m_PrefabAsset: {fileID: 0}
