%YAML 1.1
%TAG !u! tag:unity3d.com,2011:
--- !u!21 &2100000
Material:
  serializedVersion: 6
  m_ObjectHideFlags: 0
  m_CorrespondingSourceObject: {fileID: 0}
  m_PrefabInstance: {fileID: 0}
  m_PrefabAsset: {fileID: 0}
  m_Name: Complicated
  m_Shader: {fileID: -6465566751694194690, guid: 23c20b6e3f019804c9213bf0946b2037,
    type: 3}
  m_ShaderKeywords: _EMISSION _RECEIVE_SHADOWS_OFF _SPECULAR_SETUP _USE8NEIGHBOURHOOD_ON
  m_LightmapFlags: 2
  m_EnableInstancingVariants: 1
  m_DoubleSidedGI: 1
  m_CustomRenderQueue: -1
  stringTagMap: {}
  disabledShaderPasses:
  - SHADOWCASTER
  m_SavedProperties:
    serializedVersion: 3
    m_TexEnvs:
    - MainTex:
        m_Texture: {fileID: 0}
        m_Scale: {x: 1, y: 1}
        m_Offset: {x: 0, y: 0}
    - Texture2D_6F36A3E5:
        m_Texture: {fileID: 0}
        m_Scale: {x: 1, y: 1}
        m_Offset: {x: 0, y: 0}
    - Texture2D_8810A78A:
        m_Texture: {fileID: 0}
        m_Scale: {x: 1, y: 1}
        m_Offset: {x: 0, y: 0}
    - Texture2D_A73AEEB3:
        m_Texture: {fileID: 0}
        m_Scale: {x: 1, y: 1}
        m_Offset: {x: 0, y: 0}
    - _BaseMap:
        m_Texture: {fileID: 0}
        m_Scale: {x: 1, y: 1}
        m_Offset: {x: 0, y: 0}
    - _BumpMap:
        m_Texture: {fileID: 0}
        m_Scale: {x: 1, y: 1}
        m_Offset: {x: 0, y: 0}
    - _EmissionMap:
        m_Texture: {fileID: 0}
        m_Scale: {x: 1, y: 1}
        m_Offset: {x: 0, y: 0}
    - _MainTex:
        m_Texture: {fileID: 0}
        m_Scale: {x: 1, y: 1}
        m_Offset: {x: 0, y: 0}
    - _MetallicGlossMap:
        m_Texture: {fileID: 0}
        m_Scale: {x: 1, y: 1}
        m_Offset: {x: 0, y: 0}
    - _OcclusionMap:
        m_Texture: {fileID: 0}
        m_Scale: {x: 1, y: 1}
        m_Offset: {x: 0, y: 0}
    - _SpecGlossMap:
        m_Texture: {fileID: 0}
        m_Scale: {x: 1, y: 1}
        m_Offset: {x: 0, y: 0}
    m_Floats:
    - Vector1_2A2B1C29: 3
    - Vector1_79973CC: 0.29
    - Vector1_9463B5B: 0
    - Vector1_96817875: 0.461
    - Vector1_A291EFC6: 0.4
    - Vector1_A7D3BB0F: 0
    - Vector1_B2AC3157: 0
    - Vector1_D022B8BC: 0
    - Vector1_F13763E7: -1.98
    - _AlphaClip: 0
    - _Blend: 0
    - _BumpScale: 1
    - _Cull: 0
    - _Cutoff: 0.5
    - _DstBlend: 10
    - _EnvironmentReflections: 1
    - _GlossMapScale: 0
    - _Glossiness: 0
    - _GlossyReflections: 0
    - _Metallic: 0
    - _OcclusionStrength: 1
    - _OutlineMipLevel: 0
    - _OutlineReferenceTexWidth: 1024
    - _OutlineSmoothness: 1
    - _OutlineWidth: 3
    - _QueueOffset: 0
    - _ReceiveShadows: 0
    - _Smoothness: 0
    - _SmoothnessTextureChannel: 0
    - _SpecularHighlights: 1
    - _SrcBlend: 5
    - _StencilComp: 8
    - _StencilRef: 1
    - _StraightAlphaInput: 0
    - _Surface: 1
    - _ThresholdEnd: 0.25
    - _Use8Neighbourhood: 1
    - _Width: 1
    - _WorkflowMode: 0
    - _ZWrite: 0
    m_Colors:
    - Albedo_Color: {r: 1, g: 0, b: 0, a: 0.47058824}
    - Color_28FF8C63: {r: 1, g: 1, b: 1, a: 0}
    - Color_35B98E3B: {r: 1, g: 1, b: 1, a: 1}
    - Color_C5A8149: {r: 1, g: 1, b: 1, a: 0}
    - Color_CB4449D6: {r: 1, g: 1, b: 1, a: 0}
    - Vector4_E5B935E7: {r: 1, g: 1, b: 0, a: 0}
    - _BaseColor: {r: 1, g: 0, b: 0, a: 0.1882353}
    - _Color: {r: 1, g: 0, b: 0, a: 0.8392157}
    - _EmissionColor: {r: 1, g: 0, b: 0, a: 1}
    - _OutlineColor: {r: 1, g: 1, b: 0, a: 1}
    - _SpecColor: {r: 1, g: 1, b: 1, a: 1}
--- !u!114 &7761689332858564254
MonoBehaviour:
  m_ObjectHideFlags: 11
  m_CorrespondingSourceObject: {fileID: 0}
  m_PrefabInstance: {fileID: 0}
  m_PrefabAsset: {fileID: 0}
  m_GameObject: {fileID: 0}
  m_Enabled: 1
  m_EditorHideFlags: 0
  m_Script: {fileID: 11500000, guid: d0353a89b1f911e48b9e16bdc9f2e058, type: 3}
  m_Name: 
  m_EditorClassIdentifier: 
  version: 1
